{
    "description": "Oracle JDK 8",
    "homepage": "http://www.oracle.com/technetwork/java/javase/overview/index.html",
    "version": "8u201-b09",
    "license": "http://www.oracle.com/technetwork/java/javase/terms/license",
    "architecture": {
        "64bit": {
            "url": "http://download.oracle.com/otn-pub/java/jdk/8u201-b09/42970487e3af4f5aa5bca3f542482c60/jdk-8u201-windows-x64.exe#/dl.7z",
            "hash": "bf43f92ab22419a10878638c4fcd559085398233bce6427a89309cab850aab78"
        },
        "32bit": {
            "url": "http://download.oracle.com/otn-pub/java/jdk/8u201-b09/42970487e3af4f5aa5bca3f542482c60/jdk-8u201-windows-i586.exe#/dl.7z",
            "hash": "c95830b3e78f5abae26d693d6fb0c16a229f14597f8216b919810b59ad7f752c"
        }
    },
    "cookie": {
        "oraclelicense": "accept-securebackup-cookie"
    },
    "extract_to": "tmp",
    "installer": {
        "script": [
            "# Java Source (src.zip)",
            "extract_7zip \"$dir\\tmp\\.rsrc\\1033\\JAVA_CAB9\\110\" \"$dir\"",
            "# JDK (tools.zip)",
            "extract_7zip \"$dir\\tmp\\.rsrc\\1033\\JAVA_CAB10\\111\" \"$dir\\tmp\"",
            "extract_7zip \"$dir\\tmp\\tools.zip\" \"$dir\"",
            "# Copyright (COPYRIGHT)",
            "extract_7zip \"$dir\\tmp\\.rsrc\\1033\\JAVA_CAB11\\112\" \"$dir\"",
            "# Convert .pack to .jar, and remove .pack",
            "pushd \"$dir\"",
            "ls \"$dir\" -recurse | ? name -match '^[^_].*?\\.(?i)pack$' | % {",
            "    $name = $_.fullname -replace '\\.(?i)pack$', ''",
            "    $pack = \"$name.pack\"",
            "    $jar = \"$name.jar\"",
            "    & \"bin\\unpack200.exe\" \"-r\" \"$pack\" \"$jar\"",
            "}",
            "rm -r tmp | out-null",
            "popd"
        ]
    },
    "env_add_path": "bin",
    "env_set": {
        "JAVA_HOME": "$dir"
    },
    "checkver": {
        "url": "http://www.oracle.com/technetwork/java/javase/downloads/jdk8-downloads-2133151.html",
        "re": "(?<version>[ub\\-\\d]+)/(?<random>[a-fA-F0-9]{32})/jdk-(?<short>[u\\d]+)-windows"
    },
    "autoupdate": {
        "architecture": {
            "64bit": {
                "url": "http://download.oracle.com/otn-pub/java/jdk/$version/$matchRandom/jdk-$matchShort-windows-x64.exe#/dl.7z"
            },
            "32bit": {
                "url": "http://download.oracle.com/otn-pub/java/jdk/$version/$matchRandom/jdk-$matchShort-windows-i586.exe#/dl.7z"
            }
        },
        "hash": {
            "url": "http://www.oracle.com/technetwork/java/javase/downloads/jdk8-downloads-2133151.html",
            "find": "$basename.*([a-fA-F0-9]{64})\"};"
        }
    }
}
